build_id,esxi_search_domains,esxi_boot_device,esxi_default_vm_net,esxi_enable_ssh,esxi_enable_shell,esxi_ssh_suppress_warn,esxi_shell_suppress_warn,esxi_local_vmfs_prefix
1,datalinklabs.local,disk,no,yes,yes,yes,yes,local_
4,datalinklabs.local,usb,no,yes,yes,yes,yes,local_
5,"rss.hyatt.com,hhc.hyattdir.net,corporate.globalhyatt.com,omaha.hyt,hyattdir.net,hyatt.com",disk,no,yes,yes,yes,yes,local_
6,"rss.hyatt.com,hhc.hyattdir.net,corporate.globalhyatt.com,omaha.hyt,hyattdir.net,hyatt.com",disk,no,no,no,no,no,local_
7,"rss.hyatt.com,hhc.hyattdir.net,corporate.globalhyatt.com,omaha.hyt,hyattdir.net,hyatt.com",disk,no,no,no,no,no,local_
8,"rss.hyatt.com,hhc.hyattdir.net,corporate.globalhyatt.com,omaha.hyt,hyattdir.net,hyatt.com",disk,no,no,no,no,no,local_
9,"rss.hyatt.com,hhc.hyattdir.net,corporate.globalhyatt.com,omaha.hyt,hyattdir.net,hyatt.com",disk,no,no,no,no,no,local_
10,"rss.hyatt.com,hhc.hyattdir.net,corporate.globalhyatt.com,omaha.hyt,hyattdir.net,hyatt.com",disk,no,no,no,no,no,local_
11,"rss.hyatt.com,hhc.hyattdir.net,corporate.globalhyatt.com,omaha.hyt,hyattdir.net,hyatt.com",disk,no,yes,yes,yes,yes,local_
12,"rss.hyatt.com,hhc.hyattdir.net,corporate.globalhyatt.com,omaha.hyt,hyattdir.net,hyatt.com",disk,no,no,no,no,no,local_
13,"rss.hyatt.com,hhc.hyattdir.net,corporate.globalhyatt.com,omaha.hyt,hyattdir.net,hyatt.com",disk,no,no,no,no,no,local_
14,"rss.hyatt.com,hhc.hyattdir.net,corporate.globalhyatt.com,omaha.hyt,hyattdir.net,hyatt.com",disk,no,no,no,no,no,local_
15,"rss.hyatt.com,hhc.hyattdir.net,corporate.globalhyatt.com,omaha.hyt,hyattdir.net,hyatt.com",disk,no,no,no,no,no,local_
16,"rss.hyatt.com,hhc.hyattdir.net,corporate.globalhyatt.com,omaha.hyt,hyattdir.net,hyatt.com",disk,no,no,no,no,no,local_
