location_id,customer_address,system_install_address,rma_address,rma_attn_to_name
1,"10050 Crosstown Cir, Ste. 500, Eden Prairie, MN 55344","10050 Crosstown Cir, Ste. 500, Eden Prairie, MN 55344","10050 Crosstown Cir, Ste. 500, Eden Prairie, MN 55344",Lab Advocates
2,"200 W Monroe, Chicago, IL 60606","9377 Grand Ave. Franklin Park, Chicago, IL 60131","9377 Grand Ave. Franklin Park, Chicago, IL 60131",Steven Stubbe
3,"200 W Monroe, Chicago, IL 60606","2121 S Price Road, Chandler, AZ 85286","2121 S Price Road, Chandler, AZ 85286",Steven Stubbe
