build_id,esxi_hostname_fqdn,esxi_licence_key
5,sorddcvmgmt101.rss.hyatt.com,VJ692-0P082-L8R6X-0HGH2-AJQNH
5,sorddcvmgmt102.rss.hyatt.com,VJ692-0P082-L8R6X-0HGH2-AJQNH
5,sorddcvmgmt103.rss.hyatt.com,VJ692-0P082-L8R6X-0HGH2-AJQNH
6,sorddcvesvc101.rss.hyatt.com,VJ692-0P082-L8R6X-0HGH2-AJQNH
6,sorddcvesvc102.rss.hyatt.com,VJ692-0P082-L8R6X-0HGH2-AJQNH
6,sorddcvesvc103.rss.hyatt.com,VJ692-0P082-L8R6X-0HGH2-AJQNH
6,sorddcvesvc104.rss.hyatt.com,VJ692-0P082-L8R6X-0HGH2-AJQNH
6,sorddcvesvc105.rss.hyatt.com,VJ692-0P082-L8R6X-0HGH2-AJQNH
6,sorddcvesvc106.rss.hyatt.com,VJ692-0P082-L8R6X-0HGH2-AJQNH
6,sorddcvesvc107.rss.hyatt.com,VJ692-0P082-L8R6X-0HGH2-AJQNH
6,sorddcvesvc108.rss.hyatt.com,VJ692-0P082-L8R6X-0HGH2-AJQNH
7,sorddcvprod101.rss.hyatt.com,VJ692-0P082-L8R6X-0HGH2-AJQNH
7,sorddcvprod102.rss.hyatt.com,VJ692-0P082-L8R6X-0HGH2-AJQNH
7,sorddcvprod103.rss.hyatt.com,VJ692-0P082-L8R6X-0HGH2-AJQNH
7,sorddcvprod104.rss.hyatt.com,VJ692-0P082-L8R6X-0HGH2-AJQNH
7,sorddcvprod105.rss.hyatt.com,VJ692-0P082-L8R6X-0HGH2-AJQNH
7,sorddcvprod106.rss.hyatt.com,VJ692-0P082-L8R6X-0HGH2-AJQNH
7,sorddcvprod107.rss.hyatt.com,VJ692-0P082-L8R6X-0HGH2-AJQNH
7,sorddcvprod108.rss.hyatt.com,VJ692-0P082-L8R6X-0HGH2-AJQNH
8,sorddcvprod201.rss.hyatt.com,VJ692-0P082-L8R6X-0HGH2-AJQNH
8,sorddcvprod202.rss.hyatt.com,VJ692-0P082-L8R6X-0HGH2-AJQNH
8,sorddcvprod203.rss.hyatt.com,VJ692-0P082-L8R6X-0HGH2-AJQNH
8,sorddcvprod204.rss.hyatt.com,VJ692-0P082-L8R6X-0HGH2-AJQNH
8,sorddcvprod205.rss.hyatt.com,VJ692-0P082-L8R6X-0HGH2-AJQNH
8,sorddcvprod206.rss.hyatt.com,VJ692-0P082-L8R6X-0HGH2-AJQNH
8,sorddcvprod207.rss.hyatt.com,VJ692-0P082-L8R6X-0HGH2-AJQNH
8,sorddcvprod208.rss.hyatt.com,VJ692-0P082-L8R6X-0HGH2-AJQNH
9,sorddcvnonp101.rss.hyatt.com,VJ692-0P082-L8R6X-0HGH2-AJQNH
9,sorddcvnonp102.rss.hyatt.com,VJ692-0P082-L8R6X-0HGH2-AJQNH
9,sorddcvnonp103.rss.hyatt.com,VJ692-0P082-L8R6X-0HGH2-AJQNH
9,sorddcvnonp104.rss.hyatt.com,VJ692-0P082-L8R6X-0HGH2-AJQNH
9,sorddcvnonp105.rss.hyatt.com,VJ692-0P082-L8R6X-0HGH2-AJQNH
9,sorddcvnonp106.rss.hyatt.com,VJ692-0P082-L8R6X-0HGH2-AJQNH
9,sorddcvnonp107.rss.hyatt.com,VJ692-0P082-L8R6X-0HGH2-AJQNH
9,sorddcvnonp108.rss.hyatt.com,VJ692-0P082-L8R6X-0HGH2-AJQNH
10,sorddcvnonp201.rss.hyatt.com,VJ692-0P082-L8R6X-0HGH2-AJQNH
10,sorddcvnonp202.rss.hyatt.com,VJ692-0P082-L8R6X-0HGH2-AJQNH
10,sorddcvnonp203.rss.hyatt.com,VJ692-0P082-L8R6X-0HGH2-AJQNH
10,sorddcvnonp204.rss.hyatt.com,VJ692-0P082-L8R6X-0HGH2-AJQNH
10,sorddcvnonp205.rss.hyatt.com,VJ692-0P082-L8R6X-0HGH2-AJQNH
10,sorddcvnonp206.rss.hyatt.com,VJ692-0P082-L8R6X-0HGH2-AJQNH
10,sorddcvnonp207.rss.hyatt.com,VJ692-0P082-L8R6X-0HGH2-AJQNH
10,sorddcvnonp208.rss.hyatt.com,VJ692-0P082-L8R6X-0HGH2-AJQNH
11,sphxdcvmgmt101.rss.hyatt.com,VJ692-0P082-L8R6X-0HGH2-AJQNH
11,sphxdcvmgmt102.rss.hyatt.com,VJ692-0P082-L8R6X-0HGH2-AJQNH
11,sphxdcvmgmt103.rss.hyatt.com,VJ692-0P082-L8R6X-0HGH2-AJQNH
12,sphxdcvesvc101.rss.hyatt.com,VJ692-0P082-L8R6X-0HGH2-AJQNH
12,sphxdcvesvc102.rss.hyatt.com,VJ692-0P082-L8R6X-0HGH2-AJQNH
12,sphxdcvesvc103.rss.hyatt.com,VJ692-0P082-L8R6X-0HGH2-AJQNH
12,sphxdcvesvc104.rss.hyatt.com,VJ692-0P082-L8R6X-0HGH2-AJQNH
12,sphxdcvesvc105.rss.hyatt.com,VJ692-0P082-L8R6X-0HGH2-AJQNH
12,sphxdcvesvc106.rss.hyatt.com,VJ692-0P082-L8R6X-0HGH2-AJQNH
12,sphxdcvesvc107.rss.hyatt.com,VJ692-0P082-L8R6X-0HGH2-AJQNH
12,sphxdcvesvc108.rss.hyatt.com,VJ692-0P082-L8R6X-0HGH2-AJQNH
13,sphxdcvprod101.rss.hyatt.com,VJ692-0P082-L8R6X-0HGH2-AJQNH
13,sphxdcvprod102.rss.hyatt.com,VJ692-0P082-L8R6X-0HGH2-AJQNH
13,sphxdcvprod103.rss.hyatt.com,VJ692-0P082-L8R6X-0HGH2-AJQNH
13,sphxdcvprod104.rss.hyatt.com,VJ692-0P082-L8R6X-0HGH2-AJQNH
13,sphxdcvprod105.rss.hyatt.com,VJ692-0P082-L8R6X-0HGH2-AJQNH
13,sphxdcvprod106.rss.hyatt.com,VJ692-0P082-L8R6X-0HGH2-AJQNH
13,sphxdcvprod107.rss.hyatt.com,VJ692-0P082-L8R6X-0HGH2-AJQNH
13,sphxdcvprod108.rss.hyatt.com,VJ692-0P082-L8R6X-0HGH2-AJQNH
14,sphxdcvprod201.rss.hyatt.com,VJ692-0P082-L8R6X-0HGH2-AJQNH
14,sphxdcvprod202.rss.hyatt.com,VJ692-0P082-L8R6X-0HGH2-AJQNH
14,sphxdcvprod203.rss.hyatt.com,VJ692-0P082-L8R6X-0HGH2-AJQNH
14,sphxdcvprod204.rss.hyatt.com,VJ692-0P082-L8R6X-0HGH2-AJQNH
14,sphxdcvprod205.rss.hyatt.com,VJ692-0P082-L8R6X-0HGH2-AJQNH
14,sphxdcvprod206.rss.hyatt.com,VJ692-0P082-L8R6X-0HGH2-AJQNH
14,sphxdcvprod207.rss.hyatt.com,VJ692-0P082-L8R6X-0HGH2-AJQNH
14,sphxdcvprod208.rss.hyatt.com,VJ692-0P082-L8R6X-0HGH2-AJQNH
15,sphxdcvnonp101.rss.hyatt.com,VJ692-0P082-L8R6X-0HGH2-AJQNH
15,sphxdcvnonp102.rss.hyatt.com,VJ692-0P082-L8R6X-0HGH2-AJQNH
15,sphxdcvnonp103.rss.hyatt.com,VJ692-0P082-L8R6X-0HGH2-AJQNH
15,sphxdcvnonp104.rss.hyatt.com,VJ692-0P082-L8R6X-0HGH2-AJQNH
15,sphxdcvnonp105.rss.hyatt.com,VJ692-0P082-L8R6X-0HGH2-AJQNH
15,sphxdcvnonp106.rss.hyatt.com,VJ692-0P082-L8R6X-0HGH2-AJQNH
15,sphxdcvnonp107.rss.hyatt.com,VJ692-0P082-L8R6X-0HGH2-AJQNH
15,sphxdcvnonp108.rss.hyatt.com,VJ692-0P082-L8R6X-0HGH2-AJQNH
16,sphxdcvnonp201.rss.hyatt.com,VJ692-0P082-L8R6X-0HGH2-AJQNH
16,sphxdcvnonp202.rss.hyatt.com,VJ692-0P082-L8R6X-0HGH2-AJQNH
16,sphxdcvnonp203.rss.hyatt.com,VJ692-0P082-L8R6X-0HGH2-AJQNH
16,sphxdcvnonp204.rss.hyatt.com,VJ692-0P082-L8R6X-0HGH2-AJQNH
16,sphxdcvnonp205.rss.hyatt.com,VJ692-0P082-L8R6X-0HGH2-AJQNH
16,sphxdcvnonp206.rss.hyatt.com,VJ692-0P082-L8R6X-0HGH2-AJQNH
16,sphxdcvnonp207.rss.hyatt.com,VJ692-0P082-L8R6X-0HGH2-AJQNH
16,sphxdcvnonp208.rss.hyatt.com,VJ692-0P082-L8R6X-0HGH2-AJQNH
